^D:\GIT\PLEASE\PROJECT1\UNITTEST1\STDAFX.CPP
D:\GIT\PLEASE\PROJECT1\UNITTEST1\X64\RELEASE\UNITTEST1.PCH
D:\GIT\PLEASE\PROJECT1\UNITTEST1\X64\RELEASE\VC141.PDB
D:\GIT\PLEASE\PROJECT1\UNITTEST1\X64\RELEASE\STDAFX.OBJ
^D:\GIT\PLEASE\PROJECT1\UNITTEST1\UNITTEST1.CPP
D:\GIT\PLEASE\PROJECT1\UNITTEST1\X64\RELEASE\VC141.PDB
D:\GIT\PLEASE\PROJECT1\UNITTEST1\X64\RELEASE\UNITTEST1.OBJ
