^D:\GIT\PLEASE\PROJECT1\UNITTEST1\X64\RELEASE\STDAFX.OBJ|D:\GIT\PLEASE\PROJECT1\UNITTEST1\X64\RELEASE\UNITTEST1.OBJ
D:\GIT\PLEASE\PROJECT1\X64\RELEASE\UNITTEST1.DLL
D:\GIT\PLEASE\PROJECT1\X64\RELEASE\UNITTEST1.PDB
