#Command:  
C:\WINDOWS\MICROSOFT.NET\ASSEMBLY\GAC_MSIL\SYSTEM.DRAWING\V4.0_4.0.0.0__B03F5F7F11D50A3A\SYSTEM.DRAWING.DLL
C:\WINDOWS\ASSEMBLY\NATIVEIMAGES_V4.0.30319_32\SYSTEM.DRAWING\058E016628CA385ECCA0589255C71BCE\SYSTEM.DRAWING.NI.DLL
C:\WINDOWS\ASSEMBLY\NATIVEIMAGES_V4.0.30319_32\SYSTEM.DRAWING\058E016628CA385ECCA0589255C71BCE\SYSTEM.DRAWING.NI.DLL.AUX
C:\WINDOWS\MICROSOFT.NET\ASSEMBLY\GAC_MSIL\SYSTEM.DRAWING\V4.0_4.0.0.0__B03F5F7F11D50A3A\SYSTEM.DRAWING.DLL
C:\WINDOWS\MICROSOFT.NET\ASSEMBLY\GAC_MSIL\SYSTEM.WINDOWS.FORMS\V4.0_4.0.0.0__B77A5C561934E089\SYSTEM.WINDOWS.FORMS.DLL
C:\WINDOWS\ASSEMBLY\NATIVEIMAGES_V4.0.30319_32\SYSTEM.WINDOWS.FORMS\68F0C8B24547A1EEAFC998EB2B2522E0\SYSTEM.WINDOWS.FORMS.NI.DLL
C:\WINDOWS\ASSEMBLY\NATIVEIMAGES_V4.0.30319_32\SYSTEM.WINDOWS.FORMS\68F0C8B24547A1EEAFC998EB2B2522E0\SYSTEM.WINDOWS.FORMS.NI.DLL.AUX
C:\WINDOWS\MICROSOFT.NET\ASSEMBLY\GAC_MSIL\SYSTEM.WINDOWS.FORMS\V4.0_4.0.0.0__B77A5C561934E089\SYSTEM.WINDOWS.FORMS.DLL
C:\WINDOWS\MICROSOFT.NET\ASSEMBLY\GAC_MSIL\ACCESSIBILITY\V4.0_4.0.0.0__B03F5F7F11D50A3A\ACCESSIBILITY.DLL
C:\WINDOWS\MICROSOFT.NET\ASSEMBLY\GAC_MSIL\SYSTEM.DEPLOYMENT\V4.0_4.0.0.0__B03F5F7F11D50A3A\SYSTEM.DEPLOYMENT.DLL
C:\WINDOWS\MICROSOFT.NET\ASSEMBLY\GAC_MSIL\SYSTEM.RUNTIME.SERIALIZATION.FORMATTERS.SOAP\V4.0_4.0.0.0__B03F5F7F11D50A3A\SYSTEM.RUNTIME.SERIALIZATION.FORMATTERS.SOAP.DLL
C:\USERS\BDB\APPDATA\LOCAL\MICROSOFT\WINDOWS\INETCACHE\IE\JV7P9988\DYNTELCONFIG[2].CACHE
