#Command:  
C:\USERS\BDB\APPDATA\LOCAL\MICROSOFT\WINDOWS\INETCACHE\COUNTERS.DAT
C:\USERS\BDB\APPDATA\LOCAL\MICROSOFT\WINDOWS\INETCACHE\IE\JV7P9988\DYNTELCONFIG[2].CACHE
C:\PROGRAM FILES (X86)\MICROSOFT VISUAL STUDIO\2017\COMMUNITY\VC\TOOLS\MSVC\14.10.25017\BIN\HOSTX86\X64\NEWTONSOFT.JSON.DLL
C:\WINDOWS\ASSEMBLY\NATIVEIMAGES_V4.0.30319_32\NEWTONSOFT.JSON\063E7D7FF834CC4E880DAA170F8B2B66\NEWTONSOFT.JSON.NI.DLL
C:\WINDOWS\ASSEMBLY\NATIVEIMAGES_V4.0.30319_32\NEWTONSOFT.JSON\063E7D7FF834CC4E880DAA170F8B2B66\NEWTONSOFT.JSON.NI.DLL.AUX
C:\WINDOWS\ASSEMBLY\NATIVEIMAGES_V4.0.30319_32\NEWTONSOFT.JSON\2EAF68E2BECF4F93432810CE0866C566\NEWTONSOFT.JSON.NI.DLL
C:\WINDOWS\ASSEMBLY\NATIVEIMAGES_V4.0.30319_32\NEWTONSOFT.JSON\2EAF68E2BECF4F93432810CE0866C566\NEWTONSOFT.JSON.NI.DLL.AUX
C:\PROGRAM FILES (X86)\MICROSOFT VISUAL STUDIO\2017\COMMUNITY\VC\TOOLS\MSVC\14.10.25017\BIN\HOSTX86\X64\NEWTONSOFT.JSON.DLL
C:\WINDOWS\ASSEMBLY\NATIVEIMAGES_V4.0.30319_32\SYSTEM.NUMERICS\090944CDCBF7FCA1C5F201BBF89B224B\SYSTEM.NUMERICS.NI.DLL
C:\WINDOWS\ASSEMBLY\NATIVEIMAGES_V4.0.30319_32\SYSTEM.NUMERICS\090944CDCBF7FCA1C5F201BBF89B224B\SYSTEM.NUMERICS.NI.DLL.AUX
C:\WINDOWS\MICROSOFT.NET\ASSEMBLY\GAC_MSIL\SYSTEM.COMPONENTMODEL.DATAANNOTATIONS\V4.0_4.0.0.0__31BF3856AD364E35\SYSTEM.COMPONENTMODEL.DATAANNOTATIONS.DLL
C:\WINDOWS\ASSEMBLY\NATIVEIMAGES_V4.0.30319_32\SYSTEM.COMP46F2B404#\06DC0659448A4D640F94B05B3F5E40F8\SYSTEM.COMPONENTMODEL.DATAANNOTATIONS.NI.DLL
C:\WINDOWS\ASSEMBLY\NATIVEIMAGES_V4.0.30319_32\SYSTEM.COMP46F2B404#\06DC0659448A4D640F94B05B3F5E40F8\SYSTEM.COMPONENTMODEL.DATAANNOTATIONS.NI.DLL.AUX
C:\WINDOWS\MICROSOFT.NET\ASSEMBLY\GAC_MSIL\SYSTEM.COMPONENTMODEL.DATAANNOTATIONS\V4.0_4.0.0.0__31BF3856AD364E35\SYSTEM.COMPONENTMODEL.DATAANNOTATIONS.DLL
C:\WINDOWS\MICROSOFT.NET\ASSEMBLY\GAC_MSIL\SYSTEM.RUNTIME.SERIALIZATION\V4.0_4.0.0.0__B77A5C561934E089\SYSTEM.RUNTIME.SERIALIZATION.DLL
C:\WINDOWS\ASSEMBLY\NATIVEIMAGES_V4.0.30319_32\SYSTEM.RUNTEB92AA12#\D5101C374CD436C6638BD68D3E681438\SYSTEM.RUNTIME.SERIALIZATION.NI.DLL
C:\WINDOWS\ASSEMBLY\NATIVEIMAGES_V4.0.30319_32\SYSTEM.RUNTEB92AA12#\D5101C374CD436C6638BD68D3E681438\SYSTEM.RUNTIME.SERIALIZATION.NI.DLL.AUX
C:\WINDOWS\MICROSOFT.NET\ASSEMBLY\GAC_MSIL\SYSTEM.RUNTIME.SERIALIZATION\V4.0_4.0.0.0__B77A5C561934E089\SYSTEM.RUNTIME.SERIALIZATION.DLL
C:\WINDOWS\MICROSOFT.NET\ASSEMBLY\GAC_MSIL\SYSTEM.SERVICEMODEL.INTERNALS\V4.0_4.0.0.0__31BF3856AD364E35\SYSTEM.SERVICEMODEL.INTERNALS.DLL
C:\WINDOWS\MICROSOFT.NET\ASSEMBLY\GAC_MSIL\SMDIAGNOSTICS\V4.0_4.0.0.0__B77A5C561934E089\SMDIAGNOSTICS.DLL
C:\WINDOWS\MICROSOFT.NET\ASSEMBLY\GAC_MSIL\SYSTEM.XML.LINQ\V4.0_4.0.0.0__B77A5C561934E089\SYSTEM.XML.LINQ.DLL
C:\WINDOWS\ASSEMBLY\NATIVEIMAGES_V4.0.30319_32\SYSTEM.XML.LINQ\644006124F267E54CF6760AC688FBF3E\SYSTEM.XML.LINQ.NI.DLL
C:\WINDOWS\ASSEMBLY\NATIVEIMAGES_V4.0.30319_32\SYSTEM.XML.LINQ\644006124F267E54CF6760AC688FBF3E\SYSTEM.XML.LINQ.NI.DLL.AUX
C:\WINDOWS\MICROSOFT.NET\ASSEMBLY\GAC_MSIL\SYSTEM.XML.LINQ\V4.0_4.0.0.0__B77A5C561934E089\SYSTEM.XML.LINQ.DLL
C:\WINDOWS\MICROSOFT.NET\ASSEMBLY\GAC_32\SYSTEM.DATA\V4.0_4.0.0.0__B77A5C561934E089\SYSTEM.DATA.DLL
C:\WINDOWS\ASSEMBLY\NATIVEIMAGES_V4.0.30319_32\SYSTEM.DATA\79892CB4EA3329381A2FC51DAD52EB6E\SYSTEM.DATA.NI.DLL
C:\WINDOWS\ASSEMBLY\NATIVEIMAGES_V4.0.30319_32\SYSTEM.DATA\79892CB4EA3329381A2FC51DAD52EB6E\SYSTEM.DATA.NI.DLL.AUX
C:\WINDOWS\MICROSOFT.NET\ASSEMBLY\GAC_32\SYSTEM.DATA\V4.0_4.0.0.0__B77A5C561934E089\SYSTEM.DATA.DLL
C:\WINDOWS\MICROSOFT.NET\ASSEMBLY\GAC_32\SYSTEM.TRANSACTIONS\V4.0_4.0.0.0__B77A5C561934E089\SYSTEM.TRANSACTIONS.DLL
C:\WINDOWS\MICROSOFT.NET\ASSEMBLY\GAC_MSIL\SYSTEM.RUNTIME.CACHING\V4.0_4.0.0.0__B03F5F7F11D50A3A\SYSTEM.RUNTIME.CACHING.DLL
C:\WINDOWS\MICROSOFT.NET\ASSEMBLY\GAC_32\SYSTEM.ENTERPRISESERVICES\V4.0_4.0.0.0__B03F5F7F11D50A3A\SYSTEM.ENTERPRISESERVICES.DLL
C:\WINDOWS\MICROSOFT.NET\ASSEMBLY\GAC_32\SYSTEM.DATA\V4.0_4.0.0.0__B77A5C561934E089\SYSTEM.DATA.DLL
C:\WINDOWS\ASSEMBLY\GAC_MSIL\SYSTEM.RESOURCES\2.0.0.0_RU_B77A5C561934E089\SYSTEM.RESOURCES.DLL
C:\WINDOWS\MICROSOFT.NET\ASSEMBLY\GAC_MSIL\SYSTEM.RESOURCES\V4.0_4.0.0.0_RU_B77A5C561934E089\SYSTEM.RESOURCES.DLL
C:\WINDOWS\ASSEMBLY\GAC_MSIL\SYSTEM.RESOURCES\2.0.0.0_RU_B77A5C561934E089\SYSTEM.RESOURCES.DLL
C:\WINDOWS\MICROSOFT.NET\ASSEMBLY\GAC_MSIL\SYSTEM.RESOURCES\V4.0_4.0.0.0_RU_B77A5C561934E089\SYSTEM.RESOURCES.DLL
C:\WINDOWS\MICROSOFT.NET\ASSEMBLY\GAC_MSIL\SYSTEM\V4.0_4.0.0.0__B77A5C561934E089\SYSTEM.DLL
C:\PROGRAM FILES (X86)\MICROSOFT VISUAL STUDIO\2017\COMMUNITY\VC\TOOLS\MSVC\14.10.25017\BIN\HOSTX86\X64\MICROSOFT.VISUALSTUDIO.TELEMETRY.DLL
